<svg id="purple_add" xmlns="http://www.w3.org/2000/svg" width="64" height="64" viewBox="0 0 64 64">
  <rect id="Rectangle_9" data-name="Rectangle 9" width="64" height="64" rx="4" fill="#0099ff"/>
  <line id="Line_7" data-name="Line 7" y2="30" transform="translate(32 17)" fill="none" stroke="#fff" stroke-width="3"/>
  <line id="Line_8" data-name="Line 8" x2="30" transform="translate(17 32)" fill="none" stroke="#fff" stroke-width="3"/>
</svg>
